[ {
  "name" : "Vêtements",
  "subcategories" : [ {
    "name" : "Homme"
  }, {
    "name" : "Femme"
  }, {
    "name" : "Enfant"
  }]
}, {
  "name" : "MultiMedia",
  "subcategories" : [ {
    "name" : "Informatique"
  }, {
    "name" : "Consoles & Jeux vidéo"
  }, {
    "name" : "Image et son"
  }, {
    "name" : "Téléphonie"
  } , {
    "name" : "Autres"
  }]
}, {
  "name" : "Équipements",
  "subcategories" : [ {
    "name" : "Auto"
  }, {
    "name" : "Moto"
  }, {
    "name" : "Autres"
  }]
}, {
  "name" : "Montres & bijoux",
  "subcategories" : [{
    "name" : "Homme"
  }, {
    "name" : "Femme"
  }, {
    "name" : "Enfant"
  }]
}
, {
  "name" : "Chaussures",
  "subcategories" : [ {
    "name" : "Homme"
  }, {
    "name" : "Femme"
  }, {
    "name" : "Enfant"
  }]
}, {
  "name" : "Loisirs",
  "subcategories" : [ {
    "name" : "DVD"
  }, {
    "name" : "CD"
  }, {
    "name" : "Livres"
  }, {
    "name" : "Jeux & jouets"
  } ]
}, {
  "name" : "Outils",
  "subcategories" : [ {
    "name" : "Divers"
  }]
}, {
  "name" : "Billetterie",
  "subcategories" : [ {
    "name" : "Cinéma"
  }, {
    "name" : "Théatre"
  }, {
    "name" : "Opéra"
  }, {
    "name" : "Autres"
  } ]
} ]

