{
  "rules": {
    ".read": "auth != null",
    ".write": "auth != null",
      "users": {
      ".indexOn": ["email", "name", "username"]
    },
    "videos": {
      ".indexOn": ["receipt_user", "send_user", "name", "createdAt", "receiptUid", "ownerUid"]
    },
    "conversations": {
      ".indexOn": ["fromId", "toId"]
    },
    "notifications": {
      ".indexOn": ["user"]
    },
    "proof_info": {
      ".indexOn": ["videoId"]
    },
    "notation": {
      ".indexOn": ["userUid"]
    },
    "messages": {
      ".indexOn": ["conversation"]
    },
    "slide_dashboard": {
      ".read": "auth == null"
    }
  }
    
}